EDAPlayground/Full-Adder/Files/tb_FULLADD_4.vcd
$date
	Sun Mar 10 14:06:13 2024
$end

$version
	Synopsys VCS version S-2021.09
$end

$timescale
	1ns
$end

$comment Csum: 1 effe2b9c2235892b $end


$scope module tb_FULLADD_4 $end
$var reg 1 ! clk $end
$var reg 4 " X [3:0] $end
$var reg 4 # Y [3:0] $end
$var reg 1 $ CINtest $end
$var wire 1 % COUTtest $end
$var wire 1 & SUMtest [3] $end
$var wire 1 ' SUMtest [2] $end
$var wire 1 ( SUMtest [1] $end
$var wire 1 ) SUMtest [0] $end

$scope module fa4 $end
$var wire 4 " A4 [3:0] $end
$var wire 4 # B4 [3:0] $end
$var wire 1 $ CINf $end
$var wire 1 % COUTf $end
$var wire 1 & SUM4 [3] $end
$var wire 1 ' SUM4 [2] $end
$var wire 1 ( SUM4 [1] $end
$var wire 1 ) SUM4 [0] $end
$var wire 1 % C4 [3] $end
$var wire 1 * C4 [2] $end
$var wire 1 + C4 [1] $end
$var wire 1 , C4 [0] $end

$scope module FA0 $end
$var wire 1 - A $end
$var wire 1 . B $end
$var wire 1 $ CIN $end
$var wire 1 ) SUM $end
$var wire 1 , COUT $end
$upscope $end


$scope module FA1 $end
$var wire 1 / A $end
$var wire 1 0 B $end
$var wire 1 , CIN $end
$var wire 1 ( SUM $end
$var wire 1 + COUT $end
$upscope $end


$scope module FA2 $end
$var wire 1 1 A $end
$var wire 1 2 B $end
$var wire 1 + CIN $end
$var wire 1 ' SUM $end
$var wire 1 * COUT $end
$upscope $end


$scope module FA3 $end
$var wire 1 3 A $end
$var wire 1 4 B $end
$var wire 1 * CIN $end
$var wire 1 & SUM $end
$var wire 1 % COUT $end
$upscope $end

$upscope $end

$upscope $end

$enddefinitions $end

#0
$dumpvars
0,
0+
0*
0%
0$
0)
0(
0'
0&
0!
x3
x1
x/
x-
x4
x2
x0
x.
b0000 "
b0000 #
$end
03
01
0/
0-
04
02
00
0.
#5
1!
#10
b0001 "
1-
b0001 #
1.
0!
0)
1,
1(
#15
1!
#20
0!
#25
1!
#30
b0000 #
0.
1$
0!
#35
1!
#40
0!
#45
1!
#50
0!
#55
1!
#60
b0010 "
1/
0-
b0001 #
1.
0$
0!
0,
1)
1(
#65
1!
#70
0!
#75
1!
#80
0!
#85
1!
#90
0!
#95
1!
#100
b0000 #
0.
1$
0!
#105
1!
#110
0!
#115
1!
#120
0!
#125
1!
#130
0!
#135
1!
#140
0!
#145
1!
#150
b0001 #
1.
0!
1,
0)
1+
0(
1'
#155
1!
#160
0!
#165
1!
#170
0!
#175
1!
#180
0!
#185
1!
#190
0!
#195
1!
#200
0!
#205
1!
#210
b1010 "
13
b0101 #
12
0$
0!
1&
1*
0'
0,
1)
1%
0&
0+
1(
0*
1'
0%
1&
#215
1!
#220
0!
#225
1!
#230
0!
#235
1!
#240
0!
#245
1!
#250
0!
#255
1!
#260
0!
#265
1!
#270
0!
#275
1!
#280
1$
0!
1,
0)
1+
0(
1*
0'
1%
0&
